<?xml version="1.0" encoding="UTF-8"?>
<!DOCTYPE svg PUBLIC "-//W3C//DTD SVG 1.1//EN" "http://www.w3.org/Graphics/SVG/1.1/DTD/svg11.dtd">
<!-- Creator: CorelDRAW X7 -->
<svg xmlns="http://www.w3.org/2000/svg" xml:space="preserve" width="10mm" height="10mm" version="1.1" style="shape-rendering:geometricPrecision; text-rendering:geometricPrecision; image-rendering:optimizeQuality; fill-rule:evenodd; clip-rule:evenodd"
viewBox="0 0 1000 1000"
 xmlns:xlink="http://www.w3.org/1999/xlink">
 <defs>
  <style type="text/css">
   <![CDATA[
    .fil0 {fill:#999999}
   ]]>
  </style>
 </defs>
 <g id="Layer_x0020_1">
  <metadata id="CorelCorpID_0Corel-Layer"/>
  <g id="document" data-iconmelon="80 icons pack:f3abe8c7a4c78fc8a33a3142abd7908a">
   <g>
    <g>
     <path class="fil0" d="M277 365c0,17 14,32 32,32l428 0c17,0 32,-15 32,-32 0,-18 -15,-32 -32,-32l-428 0c-18,0 -32,14 -32,32z"/>
    </g>
    <g>
     <path class="fil0" d="M737 458l-428 0c-18,0 -32,14 -32,32 0,18 14,32 32,32l428 0c17,0 32,-14 32,-32 0,-18 -15,-32 -32,-32z"/>
    </g>
    <g>
     <path class="fil0" d="M737 583l-428 0c-18,0 -32,15 -32,32 0,18 14,32 32,32l428 0c17,0 32,-14 32,-32 0,-17 -15,-32 -32,-32z"/>
    </g>
    <g>
     <path class="fil0" d="M529 709l-220 0c-18,0 -32,14 -32,32 0,17 14,32 32,32l220 0c17,0 32,-15 32,-32 0,-18 -15,-32 -32,-32z"/>
    </g>
    <g>
     <path class="fil0" d="M638 69l-406 0c-26,0 -48,21 -48,48l0 750c0,27 22,48 48,48l581 0c27,0 48,-21 48,-48l0 -575 -223 -223zm159 782l-549 0 0 -718 362 0 0 74 -301 0c-18,0 -32,15 -32,32 0,18 14,32 32,32l301 0 0 30 187 0 0 550 0 0z"/>
    </g>
   </g>
  </g>
 </g>
</svg>
