<?xml version="1.0" encoding="UTF-8"?>
<!DOCTYPE svg PUBLIC "-//W3C//DTD SVG 1.1//EN" "http://www.w3.org/Graphics/SVG/1.1/DTD/svg11.dtd">
<!-- Creator: CorelDRAW X7 -->
<svg xmlns="http://www.w3.org/2000/svg" xml:space="preserve" width="10mm" height="10mm" version="1.1" style="shape-rendering:geometricPrecision; text-rendering:geometricPrecision; image-rendering:optimizeQuality; fill-rule:evenodd; clip-rule:evenodd"
viewBox="0 0 1000 1000"
 xmlns:xlink="http://www.w3.org/1999/xlink">
 <defs>
  <style type="text/css">
   <![CDATA[
    .fil0 {fill:#999999}
   ]]>
  </style>
 </defs>
 <g id="Layer_x0020_1">
  <metadata id="CorelCorpID_0Corel-Layer"/>
  <g id="calendar" data-iconmelon="Line icon set:8a13eab34e9d15f81a8b9fc7cd4fb37d">
   <g id="Calendar">
    <g>
     <path class="fil0" d="M858 128c-14,0 -26,12 -26,27 0,14 12,26 26,26 15,0 27,12 27,26l0 133 -741 0 0 -133c0,-14 12,-26 26,-26 15,0 27,-12 27,-26 0,-15 -12,-27 -27,-27 -44,0 -79,36 -79,79l0 635c0,44 35,80 79,80l688 0c44,0 80,-36 80,-80l0 -635c0,-43 -36,-79 -80,-79zm27 714c0,15 -12,27 -27,27l-688 0c-14,0 -26,-12 -26,-27l0 -449 741 0 0 449zm-635 -608c14,0 26,-12 26,-27l0 -105c0,-15 -12,-27 -26,-27 -15,0 -27,12 -27,27l0 105c0,15 12,27 27,27zm105 0c15,0 27,-12 27,-27l0 -105c0,-15 -12,-27 -27,-27 -14,0 -26,12 -26,27l0 105c0,15 12,27 26,27zm106 0c15,0 27,-12 27,-27l0 -105c0,-15 -12,-27 -27,-27 -14,0 -26,12 -26,27l0 105c0,15 12,27 26,27zm106 0c15,0 27,-12 27,-27l0 -105c0,-15 -12,-27 -27,-27 -15,0 -26,12 -26,27l0 105c0,15 11,27 26,27zm106 0c15,0 26,-12 26,-27l0 -105c0,-15 -11,-27 -26,-27 -15,0 -27,12 -27,27l0 105c0,15 12,27 27,27zm106 0c14,0 26,-12 26,-27l0 -105c0,-15 -12,-27 -26,-27 -15,0 -27,12 -27,27l0 105c0,15 12,27 27,27zm-119 503c-22,0 -40,-18 -40,-40 0,-15 -12,-26 -26,-26 -15,0 -27,11 -27,26 0,51 42,93 93,93 51,0 92,-42 92,-93 0,-26 -10,-49 -28,-66 18,-17 28,-40 28,-66 0,-51 -41,-93 -92,-93 -51,0 -93,42 -93,93 0,14 12,26 27,26 14,0 26,-12 26,-26 0,-22 18,-40 40,-40 22,0 39,18 39,40 0,22 -17,39 -39,39 -15,0 -27,12 -27,27 0,14 12,26 27,26 22,0 39,18 39,40 0,22 -17,40 -39,40zm-384 26c0,15 12,27 27,27l132 0c14,0 26,-12 26,-27 0,-15 -12,-26 -26,-26l-92 0c11,-14 26,-31 39,-44 39,-41 79,-83 79,-128 0,-51 -41,-93 -92,-93 -51,0 -93,42 -93,93 0,14 12,26 27,26 14,0 26,-12 26,-26 0,-22 18,-40 40,-40 22,0 39,18 39,40 0,24 -35,61 -64,91 -36,39 -68,71 -68,107z"/>
    </g>
   </g>
  </g>
 </g>
</svg>
