<?xml version="1.0" encoding="UTF-8"?>
<!DOCTYPE svg PUBLIC "-//W3C//DTD SVG 1.1//EN" "http://www.w3.org/Graphics/SVG/1.1/DTD/svg11.dtd">
<!-- Creator: CorelDRAW X7 -->
<svg xmlns="http://www.w3.org/2000/svg" xml:space="preserve" width="10mm" height="10mm" version="1.1" style="shape-rendering:geometricPrecision; text-rendering:geometricPrecision; image-rendering:optimizeQuality; fill-rule:evenodd; clip-rule:evenodd"
viewBox="0 0 1000 1000"
 xmlns:xlink="http://www.w3.org/1999/xlink">
 <defs>
  <style type="text/css">
   <![CDATA[
    .fil0 {fill:#999999}
   ]]>
  </style>
 </defs>
 <g id="Layer_x0020_1">
  <metadata id="CorelCorpID_0Corel-Layer"/>
  <g id="document" data-iconmelon="Dripicons:2106b50fd45d6610e50e5b7a9979f71f">
   <path class="fil0" d="M840 302l-215 -214c-7,-7 -17,-11 -27,-11l-367 0c-21,0 -39,17 -39,39l0 769c0,21 18,38 39,38l581 0c22,0 39,-17 39,-38l0 -555c0,-11 -4,-21 -11,-28zm-67 43l-194 0 0 -191 3 0 191 191zm-503 501l0 -692 231 0 0 230c0,21 18,39 39,39l234 0 0 423 -504 0 0 0z"/>
  </g>
 </g>
</svg>
