<?xml version="1.0" encoding="UTF-8"?>
<!DOCTYPE svg PUBLIC "-//W3C//DTD SVG 1.1//EN" "http://www.w3.org/Graphics/SVG/1.1/DTD/svg11.dtd">
<!-- Creator: CorelDRAW X7 -->
<svg xmlns="http://www.w3.org/2000/svg" xml:space="preserve" width="10mm" height="10mm" version="1.1" style="shape-rendering:geometricPrecision; text-rendering:geometricPrecision; image-rendering:optimizeQuality; fill-rule:evenodd; clip-rule:evenodd"
viewBox="0 0 1000 1000"
 xmlns:xlink="http://www.w3.org/1999/xlink">
 <defs>
  <style type="text/css">
   <![CDATA[
    .fil0 {fill:#999999}
   ]]>
  </style>
 </defs>
 <g id="Layer_x0020_1">
  <metadata id="CorelCorpID_0Corel-Layer"/>
  <g id="notebook" data-iconmelon="Streamline Icon Set:9607247daa39dd808d30b0b3a38dcdae">
   <g id="Expanded">
    <g>
     <g>
      <path class="fil0" d="M632 388l-247 0 0 -177 247 0 0 177zm-212 -35l176 0 0 -106 -176 0 0 106z"/>
     </g>
     <g>
      <path class="fil0" d="M808 917l-635 0 0 -847 635 0 0 847zm-600 -35l565 0 0 -776 -565 0 0 776z"/>
     </g>
     <g>
      <rect class="fil0" x="790" y="300" width="88.21" height="35.27"/>
     </g>
     <g>
      <rect class="fil0" x="790" y="441" width="88.21" height="35.27"/>
     </g>
     <g>
      <rect class="fil0" x="790" y="582" width="88.21" height="35.3"/>
     </g>
     <g>
      <path class="fil0" d="M826 758l-36 0 0 -35 36 0c19,0 35,-16 35,-35l0 -459c0,-19 -16,-35 -35,-35l-36 0 0 -35 36 0c39,0 70,31 70,70l0 459c0,39 -31,70 -70,70z"/>
     </g>
     <g>
      <rect class="fil0" x="138" y="211" width="105.83" height="35.27"/>
     </g>
     <g>
      <rect class="fil0" x="138" y="317" width="105.83" height="35.27"/>
     </g>
     <g>
      <rect class="fil0" x="138" y="423" width="105.83" height="35.27"/>
     </g>
     <g>
      <rect class="fil0" x="138" y="529" width="105.83" height="35.3"/>
     </g>
     <g>
      <rect class="fil0" x="138" y="635" width="105.83" height="35.3"/>
     </g>
     <g>
      <rect class="fil0" x="138" y="741" width="105.83" height="35.3"/>
     </g>
    </g>
   </g>
  </g>
 </g>
</svg>
