<?xml version="1.0" encoding="UTF-8"?>
<!DOCTYPE svg PUBLIC "-//W3C//DTD SVG 1.1//EN" "http://www.w3.org/Graphics/SVG/1.1/DTD/svg11.dtd">
<!-- Creator: CorelDRAW X7 -->
<svg xmlns="http://www.w3.org/2000/svg" xml:space="preserve" width="10mm" height="10mm" version="1.1" style="shape-rendering:geometricPrecision; text-rendering:geometricPrecision; image-rendering:optimizeQuality; fill-rule:evenodd; clip-rule:evenodd"
viewBox="0 0 1000 1000"
 xmlns:xlink="http://www.w3.org/1999/xlink">
 <defs>
  <style type="text/css">
   <![CDATA[
    .fil0 {fill:#999999}
   ]]>
  </style>
 </defs>
 <g id="Layer_x0020_1">
  <metadata id="CorelCorpID_0Corel-Layer"/>
  <g id="users" data-iconmelon="Dripicons:2b284359e7934c3a68a30261eac0011c">
   <g>
    <path class="fil0" d="M426 592c107,0 195,-88 195,-195 0,-107 -88,-194 -195,-194 -107,0 -194,87 -194,194 0,107 87,195 194,195zm0 -322c70,0 127,57 127,127 0,70 -57,127 -127,127 -70,0 -127,-57 -127,-127 0,-70 57,-127 127,-127z"/>
    <path class="fil0" d="M515 599c-11,-4 -23,-1 -32,6l-57 49 -57 -49c-9,-7 -21,-10 -32,-6 -56,18 -239,83 -239,182 0,18 15,33 33,33l590 0c18,0 33,-15 33,-33 0,-99 -183,-164 -239,-182zm-327 148c32,-27 93,-58 152,-78l64 54c13,11 31,11 44,0l64 -54c59,20 120,51 152,78l-476 0z"/>
    <path class="fil0" d="M831 597c-13,-7 -28,-1 -34,11 -6,12 -1,28 11,34 21,10 58,34 76,58l-90 0c-14,0 -25,11 -25,25 0,14 11,25 25,25l125 0c14,0 25,-11 25,-25 0,-70 -102,-123 -113,-128z"/>
    <path class="fil0" d="M706 554c-21,0 -40,-9 -55,-23 -10,-10 -26,-10 -36,0 -10,10 -10,26 0,36 24,24 56,37 91,37 70,0 127,-57 127,-128 0,-70 -57,-128 -127,-128 -18,0 -34,4 -50,10 -13,6 -19,21 -14,33 6,13 21,19 33,14 10,-4 20,-6 31,-6 42,0 77,35 77,77 0,43 -35,78 -77,78z"/>
   </g>
  </g>
 </g>
</svg>
