<?xml version="1.0" encoding="UTF-8"?>
<!DOCTYPE svg PUBLIC "-//W3C//DTD SVG 1.1//EN" "http://www.w3.org/Graphics/SVG/1.1/DTD/svg11.dtd">
<!-- Creator: CorelDRAW X7 -->
<svg xmlns="http://www.w3.org/2000/svg" xml:space="preserve" width="10mm" height="10mm" version="1.1" style="shape-rendering:geometricPrecision; text-rendering:geometricPrecision; image-rendering:optimizeQuality; fill-rule:evenodd; clip-rule:evenodd"
viewBox="0 0 1000 1000"
 xmlns:xlink="http://www.w3.org/1999/xlink">
 <defs>
  <style type="text/css">
   <![CDATA[
    .fil0 {fill:white}
   ]]>
  </style>
 </defs>
 <g id="Layer_x0020_1">
  <metadata id="CorelCorpID_0Corel-Layer"/>
  <g id="_862823552">
   <g id="web_-_log_out_logout_exit">
    <g>
     <path class="fil0" d="M472 830l-338 60c-15,0 -28,-13 -28,-30l0 -720c0,-16 13,-30 28,-30l338 60c15,0 28,13 28,30l0 -90 -394 -60c-31,0 -56,27 -56,60l0 780c0,33 25,60 56,60l394 -60 0 -90c0,17 -13,30 -28,30zm478 -330c0,-6 -2,-11 -4,-16 0,0 -1,0 -1,0 -1,-2 -2,-4 -3,-6 -3,-2 -6,-5 -9,-6l-274 -234c-10,-11 -28,-11 -38,0 -11,12 -11,30 0,42l222 190 -652 0c-16,0 -29,13 -29,30 0,17 13,30 29,30l652 0 -222 190c-11,11 -11,30 0,41 10,12 28,12 38,0l274 -233c3,-2 6,-4 9,-7 5,-5 8,-13 8,-21 0,0 0,0 0,0 0,0 0,0 0,0z"/>
    </g>
   </g>
  </g>
  <g id="_862823520">
  </g>
  <g id="_862818976">
  </g>
  <g id="_862824352">
  </g>
  <g id="_862818752">
  </g>
  <g id="_862824768">
  </g>
  <g id="_862823488">
  </g>
  <g id="_862823360">
  </g>
  <g id="_862815776">
  </g>
  <g id="_862815232">
  </g>
  <g id="_862815168">
  </g>
  <g id="_862824832">
  </g>
  <g id="_862825024">
  </g>
  <g id="_862824864">
  </g>
  <g id="_862822368">
  </g>
  <g id="_862822560">
  </g>
 </g>
</svg>
