<?xml version="1.0" encoding="UTF-8"?>
<!DOCTYPE svg PUBLIC "-//W3C//DTD SVG 1.1//EN" "http://www.w3.org/Graphics/SVG/1.1/DTD/svg11.dtd">
<!-- Creator: CorelDRAW X7 -->
<svg xmlns="http://www.w3.org/2000/svg" xml:space="preserve" width="10mm" height="10mm" version="1.1" style="shape-rendering:geometricPrecision; text-rendering:geometricPrecision; image-rendering:optimizeQuality; fill-rule:evenodd; clip-rule:evenodd"
viewBox="0 0 1000 1000"
 xmlns:xlink="http://www.w3.org/1999/xlink">
 <defs>
  <style type="text/css">
   <![CDATA[
    .fil0 {fill:white}
   ]]>
  </style>
 </defs>
 <g id="Layer_x0020_1">
  <metadata id="CorelCorpID_0Corel-Layer"/>
  <path class="fil0" d="M649 617c-3,-3 -5,-3 -9,-4 57,-61 89,-139 89,-223 0,-87 -34,-170 -96,-232 -62,-62 -144,-96 -232,-96 -88,0 -170,34 -232,96 -62,62 -97,145 -97,232 0,88 35,170 97,232 62,62 144,97 232,97 84,0 162,-32 223,-89 0,3 1,6 3,8l266 266c3,3 7,5 11,5 4,0 8,-2 11,-5 5,-6 5,-16 0,-22l-266 -265zm-38 -16c-56,56 -131,87 -210,87 -80,0 -154,-31 -211,-87 -56,-56 -87,-131 -87,-211 0,-79 31,-154 87,-210 57,-57 131,-88 211,-88 79,0 154,31 210,88 57,56 88,131 88,210 0,80 -31,155 -88,211z"/>
 </g>
</svg>
