<?xml version="1.0" encoding="UTF-8"?>
<!DOCTYPE svg PUBLIC "-//W3C//DTD SVG 1.1//EN" "http://www.w3.org/Graphics/SVG/1.1/DTD/svg11.dtd">
<!-- Creator: CorelDRAW X7 -->
<svg xmlns="http://www.w3.org/2000/svg" xml:space="preserve" width="210mm" height="297mm" version="1.1" style="shape-rendering:geometricPrecision; text-rendering:geometricPrecision; image-rendering:optimizeQuality; fill-rule:evenodd; clip-rule:evenodd"
viewBox="0 0 21000 29700"
 xmlns:xlink="http://www.w3.org/1999/xlink"
 xmlns:a="http://ns.adobe.com/AdobeSVGViewerExtensions/3.0/">
 <defs>
  <style type="text/css">
   <![CDATA[
    .fil0 {fill:white}
   ]]>
  </style>
 </defs>
 <g id="Layer_x0020_1">
  <metadata id="CorelCorpID_0Corel-Layer"/>
  <path class="fil0" d="M10632 14691l-264 0c-14,0 -27,13 -27,27l0 264c0,14 13,27 27,27l264 0c14,0 27,-13 27,-27l0 -264c0,-14 -13,-27 -27,-27zm0 265c0,13 -13,26 -26,26l-212 0c-13,0 -26,-13 -26,-26l0 -159c0,-13 13,-26 26,-26l212 0c13,0 26,13 26,26l0 159zm-53 -66c0,8 -5,13 -13,13l-132 0c-8,0 -13,-5 -13,-13l0 -27c0,-8 5,-13 13,-13l132 0c8,0 13,5 13,13l0 27z"/>
 </g>
</svg>
